{
    "outbounds": [
        {
            "protocol": "vmess",
            "settings": {
                "vnext": [
                    {
                        "address": "233blog.com",
                        "port": 2333,
                        "users": [
                            {
                                "id": "e55c8d17-2cf3-b21a-bcf1-eeacb011ed79",
                                "alterId": 444,
                                "security": "auto"
                            }
                        ]
                    }
                ]
            },
            "streamSettings": {
                "network": "kcp",
                "kcpSettings": {
                    "uplinkCapacity": 100,
                    "downlinkCapacity": 100,
                    "congestion": true,
                    "header": {
                        "type": "none"
                    }
                }
            },
            "mux": {
                "enabled": true
            }
        },
        {
            "protocol": "freedom",
            "settings": {},
            "tag": "direct"
        },
        {
			"protocol": "blackhole",
			"settings": {},
			"tag": "blocked"
        },
        {
            "protocol": "dns",
            "tag": "dns-out"
        }
    ],
    "inbounds": [
        {
            "port": "1099",
            "protocol": "dokodemo-door",
            "settings": {
              "network": "tcp,udp",
              "timeout": 0,
              "followRedirect": true
            },
            "sniffing": {
              "enabled": true,
              "destOverride": ["http", "tls"]
            }
        },
        {
            "port": 2133,
            "tag": "dns-in",
            "protocol": "dokodemo-door",
            "settings": {
                "address": "119.29.29.29",
                "port": 53,
                "timeout": 0,
                "network": "tcp,udp"
            }
        },
        {
            "port": 2333,
            "protocol": "socks",
            "settings": {
                "auth": "noauth",
                "udp": true
            }
        },
        {
            "port": 6666,
            "protocol": "http",
            "settings": {
                "auth": "noauth",
                "udp": true
            }
        }
    ],
    "dns": {
        "servers": [
            {
                "address": "119.29.29.29",
                "port": 53,
                "domains": [
                  "geosite:cn"
                ],
                "expectIPs": [
                  "geoip:cn"
                ]
              },
              {
                "address": "1.1.1.1",
                "port": 53,
                "domains": [
                  "geosite:geolocation-!cn"
                ]
            },
            "8.8.8.8",
            "localhost"
        ]
    },
    "routing": {
        "domainStrategy": "IPOnDemand",	
        "rules": [
            {
                "type": "field",
                "inboundTag": [
                    "dns-in"
                ],
                "outboundTag": "dns-out"
            },
            {
				"type": "field",
				"ip": [
					"geoip:private"
				],
				"outboundTag": "blocked"
			},
            {
                "type": "field",
                "ip": [
                    "geoip:cn"
                ],
                "outboundTag": "direct"
            },
            {
                "type": "field",
                "domain": [
                    "geosite:cn"
                ],
                "outboundTag": "direct"
            }
        ]
    }
}