{
	"log": {
		"access": "/var/log/v2ray/access.log",
		"error": "/var/log/v2ray/error.log",
		"loglevel": "warning"
	},
	"inbounds": [
		{
			"port": 2333,
			"protocol": "vmess",
			"settings": {
				"clients": [
					{
						"id": "e55c8d17-2cf3-b21a-bcf1-eeacb011ed79",
						"level": 1,
						"alterId": 444
					}
				],
				"detour": {
					"to": "dynamic"
				}
			},
			"streamSettings": {
				"network": "tcp"
			},
			"sniffing": {
				"enabled": true,
				"destOverride": [
					"http",
					"tls"
				]
			}
		},
        {
            "protocol": "vmess",
            "port": "10000-20000",
            "tag": "dynamic",
            "settings": {
                "default": {
                    "level": 1,
                    "alterId": 32
                }
            },
            "allocate": {
                "strategy": "random",
                "concurrency": 2,
                "refresh": 5
            }
        }
		//include_ss
		//include_socks
		//include_mtproto
		//include_in_config
		//
	],
	"outbounds": [
		{
			"protocol": "freedom",
			"settings": {
				"domainStrategy": "UseIP"
			},
			"tag": "direct"
		},
		{
			"protocol": "blackhole",
			"settings": {},
			"tag": "blocked"
        },
		{
			"protocol": "mtproto",
			"settings": {},
			"tag": "tg-out"
		}
		//include_out_config
		//
	],
	"dns": {
		"servers": [
			"https+local://1.1.1.1/dns-query",
			"1.1.1.1",
			"1.0.0.1",
			"8.8.8.8",
			"8.8.4.4",
			"localhost"
		]
	},
	"routing": {
		"domainStrategy": "IPOnDemand",
		"rules": [
			{
				"type": "field",
				"ip": [
					"0.0.0.0/8",
					"10.0.0.0/8",
					"100.64.0.0/10",
					"127.0.0.0/8",
					"169.254.0.0/16",
					"172.16.0.0/12",
					"192.0.0.0/24",
					"192.0.2.0/24",
					"192.168.0.0/16",
					"198.18.0.0/15",
					"198.51.100.0/24",
					"203.0.113.0/24",
					"::1/128",
					"fc00::/7",
					"fe80::/10"
				],
				"outboundTag": "blocked"
			},
			{
				"type": "field",
				"inboundTag": ["tg-in"],
				"outboundTag": "tg-out"
			}
			//include_ban_xx
			//include_ban_bt
			//include_ban_ad
			//include_rules
			//
		]
	},
	"transport": {
		"kcpSettings": {
            "uplinkCapacity": 100,
            "downlinkCapacity": 100,
            "congestion": true
        }
	}
}